<svg id="Component_36_1" data-name="Component 36 – 1" xmlns="http://www.w3.org/2000/svg" width="17" height="17" viewBox="0 0 17 17">
  <g id="Ellipse_5" data-name="Ellipse 5" fill="none" stroke="#3b3b3b" stroke-width="2">
    <circle cx="8.5" cy="8.5" r="8.5" stroke="none"/>
    <circle cx="8.5" cy="8.5" r="7.5" fill="none"/>
  </g>
  <line id="Line_69" data-name="Line 69" y2="7" transform="translate(10.975 6.525) rotate(45)" fill="none" stroke="#3b3b3b" stroke-linecap="round" stroke-width="2"/>
  <line id="Line_70" data-name="Line 70" y2="7" transform="translate(10.975 11.475) rotate(135)" fill="none" stroke="#3b3b3b" stroke-linecap="round" stroke-width="2"/>
</svg>
