<svg xmlns="http://www.w3.org/2000/svg" width="5.681" height="9.089" viewBox="0 0 5.681 9.089">
  <path id="right-chevron" d="M470.942,474.016l3.577,3.772-3.577,3.958" transform="translate(-470.2 -473.328)" fill="none" stroke="currentColor" stroke-width="2"/>
</svg>
