<?xml version="1.0" encoding="utf-8"?>
<!-- Generator: Adobe Illustrator 24.2.3, SVG Export Plug-In . SVG Version: 6.00 Build 0)  -->
<svg version="1.1" id="Layer_1" xmlns="http://www.w3.org/2000/svg" xmlns:xlink="http://www.w3.org/1999/xlink" x="0px" y="0px"
	 viewBox="0 0 703.4 178" enable-background="new 0 0 703.4 178" xml:space="preserve">
<g>
	<g>
		<g>
			<path fill="#3C4981" d="M191.2,105.9l30.1,0l-1-39.2l-0.4,0l-56.5,76l-29.7,0l74.4-96.9l39.5,0l4.4,96.9l-29.5,0l-0.6-20.4l-23,0
				L191.2,105.9z"/>
			<path fill="#3C4981" d="M362.8,105.9l30.1,0l-1-39.2l-0.4,0l-56.5,76l-29.7,0l74.4-96.9l39.5,0l4.4,96.9l-29.5,0l-0.6-20.4l-23,0
				L362.8,105.9z"/>
			<path fill="#3C4981" d="M255.2,45.7l30.4,0l1.7,69.3l0.4,0l52.8-69.3l30.1,0L295,142.7l-35,0L255.2,45.7z"/>
			<path fill="#3C4981" d="M500.1,134.7c-10.3,5.6-20.5,9.4-32.1,9.4c-29.9,0-47.8-8.6-39.3-32.5L440.9,77
				c8.5-23.9,32.5-32.5,62.4-32.5c31.5,0,44.6,10.9,37.9,32.9l-30.8,0c4.4-12.5-1.7-16.5-12.9-16.5c-12.3,0-21.1,2.9-25,13.7
				l-14,39.5c-3.8,10.7,2.9,13.7,15.2,13.7c11.6,0,20.6-5.1,23.5-13.4l2.1-5.9l-21.6,0l5.4-15.3l52.4,0L518,142.8l-16.1,0
				L500.1,134.7z"/>
			<path fill="#FF8A3C" d="M641.7,118l-7.4,24.8H525.8c0,0,20.8-1.4,56.5-9.1C608.8,128,641.7,118,641.7,118"/>
			<g>
				<path fill="#3C4981" d="M652.5,62.3l5.8-16.4l-98,0l-33.4,93.9c4.6-0.4,24.4-2.3,55.4-9c6-1.3,12.3-2.8,18.5-4.4l-38.4,0
					l9.1-25.5l51.4,0l5.8-16.4l-51.4,0l7.9-22.3L652.5,62.3z"/>
			</g>
			<path fill="#3C4981" d="M59.6,105.2l-35.6,3.9c0,0,20.5,38.5,70.9,35.7c50.3-2.7,63-41.8,49.8-57.5C130.6,70.4,82.6,69.8,89.1,56
				c6.5-13.7,42.5-13.3,50.6,2.2l32.8-4.6c0,0-21.3-38.4-78.2-27.3c-19.7,3.9-41.2,19-39.1,40.3c1.7,17.9,27.5,24,40.5,27
				c31.8,7.4,16.8,20.2,9.9,23.1C76.3,129,59.6,105.2,59.6,105.2z"/>
		</g>
	</g>
	<g>
		<path fill="#3C4981" d="M667.6,47.2c3.8,0,7,2.9,7,6.9c0,4-3.2,6.9-7,6.9c-3.8,0-7-2.9-7-6.9C660.6,50.2,663.8,47.2,667.6,47.2z
			 M667.6,48.4c-3.2,0-5.7,2.5-5.7,5.8c0,3.4,2.5,5.8,5.7,5.8c3.2,0,5.6-2.4,5.6-5.8C673.2,50.8,670.7,48.4,667.6,48.4z M666.1,58.1
			h-1.2v-8h3c1.9,0,2.8,0.7,2.8,2.3c0,1.4-0.9,2-2.1,2.2l2.3,3.5h-1.3l-2.1-3.5h-1.4V58.1z M666.1,53.7h1.5c1.5,0,2-0.4,2-1.3
			c0-0.8-0.4-1.2-1.8-1.2h-1.7V53.7z"/>
	</g>
</g>
</svg>
